…
    ## Error in ial_regions(): Not Found (HTTP 404).

Time series for all states in the nation:

``` r
ial_states(
  interval_start = "1993-03-01",
  interval_stop = "1993-04-01"
)
```

    ## # A tibble: 56 x 6
    ##    key               year month satellite  count vis_median
    ##  * <chr>            <int> <int> <chr>      <int> <chr>     
    ##  1 gujarat           1993     3 F10       377081 -0.7027   
    ##  2 nagaland          1993     3 F10        25885 -2.1263   
    ##  3 manipur           1993     3 F10        39768 -2.1789   
    ##  4 himachal-pradesh  1993     3 F10       254726 -2.0625   
    ##  5 haryana           1993     3 F10       110908 0.4189    
    ##  6 maharashtra       1993     3 F10       801457 -0.5811   
    ##  7 tripura           1993     3 F10        15390 -1.5789   
    ##  8 madhya-pradesh    1993     3 F10       965823 -1.4444   
    ##  9 andhra-pradesh    1993     3 F10       548725 -0.6000   
    ## 10 west-bengal       1993     3 F10       738797 -1.4615   
    ## # ... with 46 more rows
…
